{
    "KPlugin": {
        "Description": "Adds selected feed to Akregator",
        "Description[ca@valencia]": "Afig la font seleccionada a Akregator",
        "Description[ca]": "Afegeix la font seleccionada a l'Akregator",
        "Description[cs]": "Přidá vybraný kanál do Akregatoru",
        "Description[eo]": "Aldonas elektitan fonton al Akregator",
        "Description[es]": "Añade la fuente seleccionada a Akregator",
        "Description[eu]": "Hautatutako jarioa «Akregator»ren gehitzen du",
        "Description[fi]": "Lisää valitun syötteen Akregatoriin",
        "Description[fr]": "Ajoute le flux sélectionné dans Akregator",
        "Description[gl]": "Engade a fonte escollida a Akregator.",
        "Description[ia]": "Adde syndication seligite a Akregator",
        "Description[it]": "Aggiunge la fonte RSS selezionata ad Akregator",
        "Description[ka]": "მონიშნული ლენტის Akregator-ში ჩამატება",
        "Description[ko]": "선택한 RSS 피드를 Akregator에 추가하기",
        "Description[nl]": "Voegt geselecteerde feeds toe aan aKregator",
        "Description[pl]": "Dodaje wybrany kanał do Akregatora",
        "Description[pt_BR]": "Adiciona a fonte selecionada ao Akregator",
        "Description[ru]": "Добавляет выбранную ленту новостей в Akregator",
        "Description[sk]": "Pridá vybraný kanál do Akregatoru",
        "Description[sl]": "Doda izbrani vir v Akregator",
        "Description[sv]": "Lägger till vald kanal i Akregator",
        "Description[tr]": "Seçili beslemeyi Akregatör'e ekler",
        "Description[uk]": "Додає вибрану подачу у Akregator",
        "Description[x-test]": "xxAdds selected feed to Akregatorxx",
        "Description[zh_CN]": "向 Akregator 添加选中的订阅源",
        "Description[zh_TW]": "將所選 feed 新增至 Akregator",
        "Icon": "akregator",
        "MimeTypes": [
            "application/octet-stream"
        ],
        "Name": "Add Feed to Akregator",
        "Name[ca@valencia]": "Afig esta font a Akregator",
        "Name[ca]": "Afegeix aquesta font a l'Akregator",
        "Name[cs]": "Přidat kanál do Akregatoru",
        "Name[de]": "Nachrichtenquelle zu Akregator hinzufügen",
        "Name[eo]": "Aldoni Feed al Akregator",
        "Name[es]": "Añadir fuente a Akregator",
        "Name[eu]": "Gehitu Jarioa «Akregator»rera",
        "Name[fi]": "Lisää syöte Akregatoriin",
        "Name[fr]": "Ajouter un flux à Akregator",
        "Name[gl]": "Engadir a fonte a Akregator",
        "Name[ia]": "Adde syndication a Akregator",
        "Name[id]": "Tambah Feed ke Akregator",
        "Name[it]": "Aggiungi la fonte ad Akregator",
        "Name[ja]": "Akregator にフィードを追加",
        "Name[ka]": "Akregator-ში ახალი ლენტის დამატება",
        "Name[ko]": "Akregator에 피드 추가하기",
        "Name[nb]": "Legg til kilde i Akregator",
        "Name[nl]": "Feed aan Akregator toevoegen",
        "Name[nn]": "Legg til kjelda i Akregator",
        "Name[pl]": "Dodaj kanał do Akregatora",
        "Name[pt_BR]": "Adicionar fonte de notícias ao Akregator",
        "Name[ru]": "Добавить ленту новостей в Akregator",
        "Name[sk]": "Pridať kanál do Akregatoru",
        "Name[sl]": "Dodaj vir k Agregatorju",
        "Name[sv]": "Lägg till kanal i Akregator",
        "Name[tr]": "Beslemeyi Akregatör'e Ekle",
        "Name[uk]": "Додати подачу в Akregator",
        "Name[x-test]": "xxAdd Feed to Akregatorxx",
        "Name[zh_CN]": "添加订阅源到 Akregator",
        "Name[zh_TW]": "將 feed 新增至 Akregator",
        "ServiceTypes": [
            "KFileItemAction/Plugin"
        ]
    },
    "MimeType": "application/octet-stream",
    "icon": "akregator"
}
