{
    "Categories": "Qt;KDE;",
    "KPlugin": {
        "Description": "Configure tabs behavior in Konqueror",
        "Description[ca@valencia]": "Configura el comportament de les pestanyes en Konqueror",
        "Description[ca]": "Configura el comportament de les pestanyes en el Konqueror",
        "Description[eo]": "Agordi la konduton de langetoj en Konqueror",
        "Description[es]": "Configurar el comportamiento de las pestañas en Konqueror",
        "Description[eu]": "Konfiguratu fitxen jokabidea «Konqueror»ren",
        "Description[fi]": "Määritä välilehtien toiminta Konquerorissa",
        "Description[fr]": "Configurer le comportement des onglets dans Konqueror",
        "Description[gl]": "Configurar o comportamento das lapelas en Konqueror.",
        "Description[ia]": "Configura le comportamento de schedas in Konqueror",
        "Description[it]": "Configura il comportamento delle schede in Konqueror",
        "Description[ka]": "Konqueror-ის ზოგადი ქცევის მორგება",
        "Description[ko]": "Konqueror의 탭 작동 방식 설정",
        "Description[nl]": "Gedrag van tabbladen in Konqueror configureren",
        "Description[pl]": "Ustawienia zachowania kart w Konquerorze",
        "Description[sl]": "Konfiguriraj obnašanje zavihkov v Konqueror",
        "Description[tr]": "Konqueror'daki sekmeler davranışını yapılandırın",
        "Description[uk]": "Налаштовування поведінки вкладок у Konqueror",
        "Description[x-test]": "xxConfigure tabs behavior in Konquerorxx",
        "Description[zh_TW]": "設定 Konqueror 中的分頁行為",
        "Icon": "konqueror",
        "Name": "Tabs Behavior",
        "Name[ca@valencia]": "Comportament de les pestanyes",
        "Name[ca]": "Comportament de les pestanyes",
        "Name[cs]": "Chovaní karet",
        "Name[eo]": "Tabs Konduto",
        "Name[es]": "Comportamiento de las pestañas",
        "Name[eu]": "Fitxen jokabidea",
        "Name[fi]": "Välilehtien toiminta",
        "Name[fr]": "Comportement des onglets",
        "Name[gl]": "Comportamento das lapelas",
        "Name[ia]": "Comportamento de schedas",
        "Name[it]": "Comportamento delle schede",
        "Name[ka]": "ჩანართების ქცევა",
        "Name[ko]": "탭 작동 방식",
        "Name[nl]": "Gedrag van tabbladen",
        "Name[pl]": "Zachowanie kart",
        "Name[sl]": "Obnašanje zavihkov",
        "Name[tr]": "Sekmeler Davranışı",
        "Name[uk]": "Поведінка вкладок",
        "Name[x-test]": "xxTabs Behaviorxx",
        "Name[zh_TW]": "分頁行為",
        "ServiceTypes": [
            "KCModule"
        ]
    },
    "X-KDE-Keywords": "konqueror,tabs",
    "X-KDE-Keywords[bg]": "подпрозорци,konqueror,tabs",
    "X-KDE-Keywords[bs]": "konqueror,tabs",
    "X-KDE-Keywords[ca@valencia]": "konqueror,pestanyes",
    "X-KDE-Keywords[ca]": "konqueror,pestanyes",
    "X-KDE-Keywords[cs]": "konqueror,karty",
    "X-KDE-Keywords[da]": "konqueror,faneblade",
    "X-KDE-Keywords[de]": "Unterfenster",
    "X-KDE-Keywords[el]": "Konqueror,καρτέλες",
    "X-KDE-Keywords[en_GB]": "konqueror,tabs",
    "X-KDE-Keywords[eo]": "Konkeranto",
    "X-KDE-Keywords[es]": "konqueror,pestañas",
    "X-KDE-Keywords[et]": "konqueror,kaardid",
    "X-KDE-Keywords[eu]": "konqueror,fitxak",
    "X-KDE-Keywords[fi]": "konqueror,välilehdet",
    "X-KDE-Keywords[fr]": "konqueror, onglets",
    "X-KDE-Keywords[ga]": "Konqueror,cluaisíní",
    "X-KDE-Keywords[gl]": "konqueror,separadores",
    "X-KDE-Keywords[he]": "konqueror,tabs",
    "X-KDE-Keywords[hsb]": "konqueror, tabs, jězdniki",
    "X-KDE-Keywords[hu]": "konqueror,lapok",
    "X-KDE-Keywords[ia]": "konqueror,schedas",
    "X-KDE-Keywords[id]": "Konqueror,tab",
    "X-KDE-Keywords[is]": "konqueror,flipar",
    "X-KDE-Keywords[it]": "konqueror,schede",
    "X-KDE-Keywords[ka]": "konqueror,tabs",
    "X-KDE-Keywords[kk]": "konqueror,tabs",
    "X-KDE-Keywords[km]": "konqueror ផ្ទាំង",
    "X-KDE-Keywords[ko]": "konqueror,tabs,탭",
    "X-KDE-Keywords[lt]": "Konqueror,kortelės",
    "X-KDE-Keywords[lv]": "konqueror,cilnes",
    "X-KDE-Keywords[mr]": "कॉन्करर, टॅब्स",
    "X-KDE-Keywords[nb]": "konqueror,faner",
    "X-KDE-Keywords[nds]": "Konqueror,Paneels",
    "X-KDE-Keywords[nl]": "konqueror,tabbladen",
    "X-KDE-Keywords[nn]": "Konqueror,faner",
    "X-KDE-Keywords[pa]": "ਕੋਨਕਿਉਰੋਰ,ਟੈਬ",
    "X-KDE-Keywords[pl]": "konqueror,karty",
    "X-KDE-Keywords[pt]": "konqueror,páginas",
    "X-KDE-Keywords[pt_BR]": "konqueror,abas",
    "X-KDE-Keywords[ro]": "konqueror,file",
    "X-KDE-Keywords[ru]": "konqueror,tabs,вкладки",
    "X-KDE-Keywords[sk]": "konqueror,karty",
    "X-KDE-Keywords[sl]": "konqueror,zavihki",
    "X-KDE-Keywords[sr@ijekavian]": "konqueror,tabs,К‑освајач,језичци",
    "X-KDE-Keywords[sr@ijekavianlatin]": "konqueror,tabs,K‑osvajač,jezičci",
    "X-KDE-Keywords[sr@latin]": "konqueror,tabs,K‑osvajač,jezičci",
    "X-KDE-Keywords[sr]": "konqueror,tabs,К‑освајач,језичци",
    "X-KDE-Keywords[sv]": "konqueror,flikar",
    "X-KDE-Keywords[tr]": "konqueror,sekmeler",
    "X-KDE-Keywords[uk]": "konqueror,tabs,вкладка,вкладки",
    "X-KDE-Keywords[wa]": "konqueror,linwetes",
    "X-KDE-Keywords[x-test]": "xxkonquerorxx,xxtabsxx",
    "X-KDE-Keywords[zh_CN]": "标签页",
    "X-KDE-Keywords[zh_TW]": "konqueror,tabs"
}
